\relax 
\@writefile{toc}{\contentsline {section}{\numberline {1}Abstract}{1}}
\@writefile{toc}{\contentsline {section}{\numberline {2}Main Classes}{1}}
\@writefile{lof}{\contentsline {figure}{\numberline {1}{\ignorespaces flow chart}}{1}}
\newlabel{fig:1}{{1}{1}}
\@writefile{toc}{\contentsline {section}{\numberline {3}Syntactic Analysis}{2}}
\@writefile{toc}{\contentsline {section}{\numberline {4}Semantic Analysis}{3}}
\@writefile{toc}{\contentsline {section}{\numberline {5}Translate to Intermediate representation}{3}}
\@writefile{toc}{\contentsline {section}{\numberline {6}Liveness Analysis and Dead Code Elimination}{3}}
\@writefile{toc}{\contentsline {section}{\numberline {7}Register Allocation}{4}}
\@writefile{toc}{\contentsline {section}{\numberline {8}Peephole Optimizations}{4}}
\@writefile{toc}{\contentsline {subsection}{\numberline {8.1}Printf Instruction Optimization}{4}}
\@writefile{toc}{\contentsline {subsection}{\numberline {8.2}"-$>$" Optimization}{5}}
\@writefile{toc}{\contentsline {subsection}{\numberline {8.3}If Instruction Optimization}{5}}
\@writefile{toc}{\contentsline {subsection}{\numberline {8.4}Immediate Data Optimization}{5}}
\@writefile{toc}{\contentsline {section}{\numberline {9}Summary}{6}}
