\relax 
\@writefile{toc}{\contentsline {section}{\numberline {1}Introduction}{1}}
\@writefile{toc}{\contentsline {section}{\numberline {2}Syntactic Analysis}{1}}
\@writefile{toc}{\contentsline {section}{\numberline {3}Semantic Analysis}{1}}
\@writefile{lof}{\contentsline {figure}{\numberline {1}{\ignorespaces flow chart}}{1}}
\newlabel{fig:1}{{1}{1}}
\@writefile{toc}{\contentsline {section}{\numberline {4}Translate to Intermediate representation}{1}}
\bibstyle{abbrvnat}
\bibcite{smith02}{{1}{2009}{{Smith et~al.}}{{Smith, Jones}}}
\@writefile{toc}{\contentsline {section}{\numberline {5}Liveness Analysis and Dead Code Elimination}{2}}
\@writefile{toc}{\contentsline {section}{\numberline {6}Register Allocation}{2}}
\@writefile{toc}{\contentsline {section}{\numberline {7}Peephole Optimizations}{2}}
\@writefile{toc}{\contentsline {section}{\numberline {A}Subsidiary Classes}{2}}
\newlabel{sigplanconf@finalpage}{{A}{2}}
